{
    "event": "suiteStart",
    "suite": "acceptance",
    "tests": 28
}{
    "event": "testStart",
    "suite": "acceptance",
    "test": "log in as an administrator user (AdministratorAuthenticationCest::checkAdministratorCanSignIn)"
}{
    "event": "test",
    "suite": "acceptance",
    "test": "log in as an administrator user (AdministratorAuthenticationCest::checkAdministratorCanSignIn)",
    "status": "pass",
    "time": 5.7256810665131,
    "trace": [

    ],
    "message": "",
    "output": ""
}{
    "event": "testStart",
    "suite": "acceptance",
    "test": "log out (AdministratorAuthenticationCest::checkAdministratorCanSignOut)"
}{
    "event": "test",
    "suite": "acceptance",
    "test": "log out (AdministratorAuthenticationCest::checkAdministratorCanSignOut)",
    "status": "pass",
    "time": 0.71471309661865,
    "trace": [

    ],
    "message": "",
    "output": ""
}{
    "event": "testStart",
    "suite": "acceptance",
    "test": "login as an author but fail (AdministratorAuthenticationCest::checkAuthorCannotSignIn)"
}{
    "event": "test",
    "suite": "acceptance",
    "test": "login as an author but fail (AdministratorAuthenticationCest::checkAuthorCannotSignIn)",
    "status": "pass",
    "time": 1.0771310329437,
    "trace": [

    ],
    "message": "",
    "output": ""
}{
    "event": "testStart",
    "suite": "acceptance",
    "test": "check that the content is present in page (ContactUsPageCest::checkContent)"
}{
    "event": "test",
    "suite": "acceptance",
    "test": "check that the content is present in page (ContactUsPageCest::checkContent)",
    "status": "pass",
    "time": 0.4657039642334,
    "trace": [

    ],
    "message": "",
    "output": ""
}{
    "event": "testStart",
    "suite": "acceptance",
    "test": "ensure menu is present in DOM (ContactUsPageCest::checkMainMenuIsInDOM)"
}{
    "event": "test",
    "suite": "acceptance",
    "test": "ensure menu is present in DOM (ContactUsPageCest::checkMainMenuIsInDOM)",
    "status": "pass",
    "time": 0.34336185455322,
    "trace": [

    ],
    "message": "",
    "output": ""
}{
    "event": "testStart",
    "suite": "acceptance",
    "test": "check that Google analytics is present on page (ContactUsPageCest::checkForGoogleAnalyticsInDOM)"
}{
    "event": "test",
    "suite": "acceptance",
    "test": "check that Google analytics is present on page (ContactUsPageCest::checkForGoogleAnalyticsInDOM)",
    "status": "pass",
    "time": 0.2833399772644,
    "trace": [

    ],
    "message": "",
    "output": ""
}{
    "event": "testStart",
    "suite": "acceptance",
    "test": "check that the content is present in page (FaqPageCest::checkContent)"
}{
    "event": "test",
    "suite": "acceptance",
    "test": "check that the content is present in page (FaqPageCest::checkContent)",
    "status": "pass",
    "time": 0.33331704139709,
    "trace": [

    ],
    "message": "",
    "output": ""
}{
    "event": "testStart",
    "suite": "acceptance",
    "test": "ensure menu is present in DOM (FaqPageCest::checkMainMenuIsInDOM)"
}{
    "event": "test",
    "suite": "acceptance",
    "test": "ensure menu is present in DOM (FaqPageCest::checkMainMenuIsInDOM)",
    "status": "pass",
    "time": 0.26602101325989,
    "trace": [

    ],
    "message": "",
    "output": ""
}{
    "event": "testStart",
    "suite": "acceptance",
    "test": "check that Google analytics is present on page (FaqPageCest::checkForGoogleAnalyticsInDOM)"
}{
    "event": "test",
    "suite": "acceptance",
    "test": "check that Google analytics is present on page (FaqPageCest::checkForGoogleAnalyticsInDOM)",
    "status": "pass",
    "time": 0.28769612312317,
    "trace": [

    ],
    "message": "",
    "output": ""
}{
    "event": "testStart",
    "suite": "acceptance",
    "test": "check that the logo, sign up and sign in are present (HomePageCest::checkContent)"
}{
    "event": "test",
    "suite": "acceptance",
    "test": "check that the logo, sign up and sign in are present (HomePageCest::checkContent)",
    "status": "pass",
    "time": 0.57262206077576,
    "trace": [

    ],
    "message": "",
    "output": ""
}{
    "event": "testStart",
    "suite": "acceptance",
    "test": "check that all the meta tags are present (HomePageCest::checkMetas)"
}{
    "event": "test",
    "suite": "acceptance",
    "test": "check that all the meta tags are present (HomePageCest::checkMetas)",
    "status": "pass",
    "time": 0.43239402770996,
    "trace": [

    ],
    "message": "",
    "output": ""
}{
    "event": "testStart",
    "suite": "acceptance",
    "test": "ensure menu is not present in DOM (HomePageCest::checkMainMenuIsNotInDOM)"
}{
    "event": "test",
    "suite": "acceptance",
    "test": "ensure menu is not present in DOM (HomePageCest::checkMainMenuIsNotInDOM)",
    "status": "pass",
    "time": 0.28098607063293,
    "trace": [

    ],
    "message": "",
    "output": ""
}{
    "event": "testStart",
    "suite": "acceptance",
    "test": "check that Google analytics is present on page (HomePageCest::checkForGoogleAnalyticsInDOM)"
}{
    "event": "test",
    "suite": "acceptance",
    "test": "check that Google analytics is present on page (HomePageCest::checkForGoogleAnalyticsInDOM)",
    "status": "pass",
    "time": 0.25888299942017,
    "trace": [

    ],
    "message": "",
    "output": ""
}{
    "event": "testStart",
    "suite": "acceptance",
    "test": "check that the content is present in page (HowItWorksPageCest::checkContent)"
}{
    "event": "test",
    "suite": "acceptance",
    "test": "check that the content is present in page (HowItWorksPageCest::checkContent)",
    "status": "pass",
    "time": 0.35041999816895,
    "trace": [

    ],
    "message": "",
    "output": ""
}{
    "event": "testStart",
    "suite": "acceptance",
    "test": "ensure menu is present in DOM (HowItWorksPageCest::checkMainMenuIsInDOM)"
}{
    "event": "test",
    "suite": "acceptance",
    "test": "ensure menu is present in DOM (HowItWorksPageCest::checkMainMenuIsInDOM)",
    "status": "pass",
    "time": 0.26617503166199,
    "trace": [

    ],
    "message": "",
    "output": ""
}{
    "event": "testStart",
    "suite": "acceptance",
    "test": "check that Google analytics is present on page (HowItWorksPageCest::checkForGoogleAnalyticsInDOM)"
}{
    "event": "test",
    "suite": "acceptance",
    "test": "check that Google analytics is present on page (HowItWorksPageCest::checkForGoogleAnalyticsInDOM)",
    "status": "pass",
    "time": 0.24993705749512,
    "trace": [

    ],
    "message": "",
    "output": ""
}{
    "event": "testStart",
    "suite": "acceptance",
    "test": "check that the content is present in page (InvestingPageCest::checkContent)"
}{
    "event": "test",
    "suite": "acceptance",
    "test": "check that the content is present in page (InvestingPageCest::checkContent)",
    "status": "pass",
    "time": 0.33000922203064,
    "trace": [

    ],
    "message": "",
    "output": ""
}{
    "event": "testStart",
    "suite": "acceptance",
    "test": "ensure menu is present in DOM (InvestingPageCest::checkMainMenuIsInDOM)"
}{
    "event": "test",
    "suite": "acceptance",
    "test": "ensure menu is present in DOM (InvestingPageCest::checkMainMenuIsInDOM)",
    "status": "pass",
    "time": 0.28854012489319,
    "trace": [

    ],
    "message": "",
    "output": ""
}{
    "event": "testStart",
    "suite": "acceptance",
    "test": "check that Google analytics is present on page (InvestingPageCest::checkForGoogleAnalyticsInDOM)"
}{
    "event": "test",
    "suite": "acceptance",
    "test": "check that Google analytics is present on page (InvestingPageCest::checkForGoogleAnalyticsInDOM)",
    "status": "pass",
    "time": 0.25336813926697,
    "trace": [

    ],
    "message": "",
    "output": ""
}{
    "event": "testStart",
    "suite": "acceptance",
    "test": "check that the content is present in page (PrivacyPolicyPageCest::checkContent)"
}{
    "event": "test",
    "suite": "acceptance",
    "test": "check that the content is present in page (PrivacyPolicyPageCest::checkContent)",
    "status": "pass",
    "time": 0.31784296035767,
    "trace": [

    ],
    "message": "",
    "output": ""
}{
    "event": "testStart",
    "suite": "acceptance",
    "test": "ensure menu is present in DOM (PrivacyPolicyPageCest::checkMainMenuIsInDOM)"
}{
    "event": "test",
    "suite": "acceptance",
    "test": "ensure menu is present in DOM (PrivacyPolicyPageCest::checkMainMenuIsInDOM)",
    "status": "pass",
    "time": 0.25724220275879,
    "trace": [

    ],
    "message": "",
    "output": ""
}{
    "event": "testStart",
    "suite": "acceptance",
    "test": "check that Google analytics is present on page (PrivacyPolicyPageCest::checkForGoogleAnalyticsInDOM)"
}{
    "event": "test",
    "suite": "acceptance",
    "test": "check that Google analytics is present on page (PrivacyPolicyPageCest::checkForGoogleAnalyticsInDOM)",
    "status": "pass",
    "time": 0.26740884780884,
    "trace": [

    ],
    "message": "",
    "output": ""
}{
    "event": "testStart",
    "suite": "acceptance",
    "test": "check that the content is present in page (RaisingMoneyPageCest::checkContent)"
}{
    "event": "test",
    "suite": "acceptance",
    "test": "check that the content is present in page (RaisingMoneyPageCest::checkContent)",
    "status": "pass",
    "time": 0.32143402099609,
    "trace": [

    ],
    "message": "",
    "output": ""
}{
    "event": "testStart",
    "suite": "acceptance",
    "test": "ensure menu is present in DOM (RaisingMoneyPageCest::checkMainMenuIsInDOM)"
}{
    "event": "test",
    "suite": "acceptance",
    "test": "ensure menu is present in DOM (RaisingMoneyPageCest::checkMainMenuIsInDOM)",
    "status": "pass",
    "time": 0.24277997016907,
    "trace": [

    ],
    "message": "",
    "output": ""
}{
    "event": "testStart",
    "suite": "acceptance",
    "test": "check that Google analytics is present on page (RaisingMoneyPageCest::checkForGoogleAnalyticsInDOM)"
}{
    "event": "test",
    "suite": "acceptance",
    "test": "check that Google analytics is present on page (RaisingMoneyPageCest::checkForGoogleAnalyticsInDOM)",
    "status": "pass",
    "time": 0.2643711566925,
    "trace": [

    ],
    "message": "",
    "output": ""
}{
    "event": "testStart",
    "suite": "acceptance",
    "test": "check that the content is present in page (TermsOfUsePageCest::checkContent)"
}{
    "event": "test",
    "suite": "acceptance",
    "test": "check that the content is present in page (TermsOfUsePageCest::checkContent)",
    "status": "pass",
    "time": 0.31664800643921,
    "trace": [

    ],
    "message": "",
    "output": ""
}{
    "event": "testStart",
    "suite": "acceptance",
    "test": "ensure menu is present in DOM (TermsOfUsePageCest::checkMainMenuIsInDOM)"
}{
    "event": "test",
    "suite": "acceptance",
    "test": "ensure menu is present in DOM (TermsOfUsePageCest::checkMainMenuIsInDOM)",
    "status": "pass",
    "time": 0.25510191917419,
    "trace": [

    ],
    "message": "",
    "output": ""
}{
    "event": "testStart",
    "suite": "acceptance",
    "test": "check that Google analytics is present on page (TermsOfUsePageCest::checkForGoogleAnalyticsInDOM)"
}{
    "event": "test",
    "suite": "acceptance",
    "test": "check that Google analytics is present on page (TermsOfUsePageCest::checkForGoogleAnalyticsInDOM)",
    "status": "pass",
    "time": 0.26828598976135,
    "trace": [

    ],
    "message": "",
    "output": ""
}